
<div class="row">
  <div class="form-outline col-md-12">
    <form>

      <div class="form-group">
        <label for="name">Name</label>
        <input type="text" class="form-control" id="name" name="name" placeholder="Name">
      </div>

      <div class="form-group">
        <label for="address">Address</label>
        <textarea class="form-control" id="address" name="address" placeholder="Address" rows="4"></textarea>
      </div>

      <div class="form-group">
        <label for="email">Email</label>
        <input type="email" class="form-control" id="email" name="email" placeholder="Email">
      </div>

      <div class="form-group">
        <label for="cardNum">Card Number</label>
        <input type="text" class="form-control" id="cardNum" name="cardNum" placeholder="Card Number">
      </div>
      <div class="form-group">
        <label for="cardType">Card Type</label>
        <select type="text" class="form-control" id="cardType" name="cardType" placeholder="Card Type">
          <option>VISA</option>
          <option>AMEX</option>
        </select>
      </div>
      <div class="form-group">
        <label for="expDate">Card Expiry</label>
        <input type="month" class="form-control" id="expDate" name="expDate">
      </div>
	<button type="submit" class="btn btn-secondary" required>Buy Flight</button>
    </form>

  </div>
</div>	